{
  "tittel": "Årshjul Høst 2020",
  "innhold": [
    {
        "fra": "2012-04-23",
        "til": "2012-08-23",
        "lenke": "https://gitlab.stud.iie.ntnu.no/olehhu/test-json",
        "beskrivelse": "En periode med arbeid"
    },
    {
        "fra": "2012-06-22",
        "til": "2012-06-22",
        "lenke": "https://gitlab.stud.iie.ntnu.no/olehhu/test-json",
        "beskrivelse": "En hendelse"
    }
  ]
}